
{
  "header": {
    "reportVersion": 2,
    "event": "Allocation failed - JavaScript heap out of memory",
    "trigger": "FatalError",
    "filename": "report.20210217.164926.3732.0.001.json",
    "dumpEventTime": "2021-02-17T16:49:26Z",
    "dumpEventTimeStamp": "1613555366046",
    "processId": 3732,
    "threadId": null,
    "cwd": "D:\\Ngulicode\\Eunoian\\Undangan 1\\client\\mr asrofilhuda\\boilerplate",
    "commandLine": [
      "node",
      "D:\\Ngulicode\\Eunoian\\Undangan 1\\client\\mr asrofilhuda\\boilerplate\\node_modules\\.bin\\\\..\\@nuxt\\typescript-runtime\\bin\\nuxt-ts.js"
    ],
    "nodejsVersion": "v12.16.2",
    "wordSize": 64,
    "arch": "x64",
    "platform": "win32",
    "componentVersions": {
      "node": "12.16.2",
      "v8": "7.8.279.23-node.34",
      "uv": "1.34.2",
      "zlib": "1.2.11",
      "brotli": "1.0.7",
      "ares": "1.15.0",
      "modules": "72",
      "nghttp2": "1.40.0",
      "napi": "5",
      "llhttp": "2.0.4",
      "http_parser": "2.9.3",
      "openssl": "1.1.1e",
      "cldr": "36.0",
      "icu": "65.1",
      "tz": "2019c",
      "unicode": "12.1"
    },
    "release": {
      "name": "node",
      "lts": "Erbium",
      "headersUrl": "https://nodejs.org/download/release/v12.16.2/node-v12.16.2-headers.tar.gz",
      "sourceUrl": "https://nodejs.org/download/release/v12.16.2/node-v12.16.2.tar.gz",
      "libUrl": "https://nodejs.org/download/release/v12.16.2/win-x64/node.lib"
    },
    "osName": "Windows_NT",
    "osRelease": "10.0.17134",
    "osVersion": "Windows 10 Education",
    "osMachine": "x86_64",
    "cpus": [
      {
        "model": "Intel(R) Core(TM) i5-7400 CPU @ 3.00GHz",
        "speed": 3000,
        "user": 3358937,
        "nice": 0,
        "sys": 2720843,
        "idle": 11573546,
        "irq": 324890
      },
      {
        "model": "Intel(R) Core(TM) i5-7400 CPU @ 3.00GHz",
        "speed": 3000,
        "user": 3187750,
        "nice": 0,
        "sys": 2072609,
        "idle": 12392796,
        "irq": 48828
      },
      {
        "model": "Intel(R) Core(TM) i5-7400 CPU @ 3.00GHz",
        "speed": 3000,
        "user": 3284453,
        "nice": 0,
        "sys": 2077593,
        "idle": 12291109,
        "irq": 21640
      },
      {
        "model": "Intel(R) Core(TM) i5-7400 CPU @ 3.00GHz",
        "speed": 3000,
        "user": 3665671,
        "nice": 0,
        "sys": 2646906,
        "idle": 11340578,
        "irq": 19781
      }
    ],
    "networkInterfaces": [
      {
        "name": "vEthernet (Default Switch)",
        "internal": false,
        "mac": "a4:15:cd:64:dd:5f",
        "address": "fe80::6d85:224c:c168:9f54",
        "netmask": "ffff:ffff:ffff:ffff::",
        "family": "IPv6",
        "scopeid": 32
      },
      {
        "name": "vEthernet (Default Switch)",
        "internal": false,
        "mac": "a4:15:cd:64:dd:5f",
        "address": "172.19.238.209",
        "netmask": "255.255.255.240",
        "family": "IPv4"
      },
      {
        "name": "Wi-Fi",
        "internal": false,
        "mac": "90:61:0c:33:2b:66",
        "address": "fe80::50a1:c6dc:3379:1184",
        "netmask": "ffff:ffff:ffff:ffff::",
        "family": "IPv6",
        "scopeid": 28
      },
      {
        "name": "Wi-Fi",
        "internal": false,
        "mac": "90:61:0c:33:2b:66",
        "address": "192.168.100.11",
        "netmask": "255.255.255.0",
        "family": "IPv4"
      },
      {
        "name": "Loopback Pseudo-Interface 1",
        "internal": true,
        "mac": "00:00:00:00:00:00",
        "address": "::1",
        "netmask": "ffff:ffff:ffff:ffff:ffff:ffff:ffff:ffff",
        "family": "IPv6",
        "scopeid": 0
      },
      {
        "name": "Loopback Pseudo-Interface 1",
        "internal": true,
        "mac": "00:00:00:00:00:00",
        "address": "127.0.0.1",
        "netmask": "255.0.0.0",
        "family": "IPv4"
      }
    ],
    "host": "zauvik"
  },
  "javascriptStack": {
    "message": "No stack.",
    "stack": [
      "Unavailable."
    ]
  },
  "nativeStack": [
    {
      "pc": "0x00007ff7236a2309",
      "symbol": "std::basic_ostream<char,std::char_traits<char> >::operator<<+11577"
    },
    {
      "pc": "0x00007ff7236a6869",
      "symbol": "std::basic_ostream<char,std::char_traits<char> >::operator<<+29337"
    },
    {
      "pc": "0x00007ff7236a56e8",
      "symbol": "std::basic_ostream<char,std::char_traits<char> >::operator<<+24856"
    },
    {
      "pc": "0x00007ff7237cdd82",
      "symbol": "v8::base::CPU::has_sse+59378"
    },
    {
      "pc": "0x00007ff723fea27e",
      "symbol": "v8::Isolate::ReportExternalAllocationLimitReached+94"
    },
    {
      "pc": "0x00007ff723fd2351",
      "symbol": "v8::SharedArrayBuffer::Externalize+833"
    },
    {
      "pc": "0x00007ff723e9e8ac",
      "symbol": "v8::internal::Heap::EphemeronKeyWriteBarrierFromCode+1436"
    },
    {
      "pc": "0x00007ff723ea9ae0",
      "symbol": "v8::internal::Heap::ProtectUnprotectedMemoryChunks+1312"
    },
    {
      "pc": "0x00007ff723ea6604",
      "symbol": "v8::internal::Heap::PageFlagsAreConsistent+3204"
    },
    {
      "pc": "0x00007ff723e9be03",
      "symbol": "v8::internal::Heap::CollectGarbage+1283"
    },
    {
      "pc": "0x00007ff723e9a474",
      "symbol": "v8::internal::Heap::AddRetainedMap+2452"
    },
    {
      "pc": "0x00007ff723ebb67d",
      "symbol": "v8::internal::Factory::NewFillerObject+61"
    },
    {
      "pc": "0x00007ff723c213d1",
      "symbol": "v8::internal::interpreter::JumpTableTargetOffsets::iterator::operator=+1665"
    },
    {
      "pc": "0x00007ff72443730d",
      "symbol": "v8::internal::SetupIsolateDelegate::SetupHeap+546637"
    },
    {
      "pc": "0x000003ee298c7597",
      "symbol": ""
    }
  ],
  "javascriptHeap": {
    "totalMemory": 2160955392,
    "totalCommittedMemory": 2160955392,
    "usedMemory": 2143273424,
    "availableMemory": 44658784,
    "memoryLimit": 2197815296,
    "heapSpaces": {
      "read_only_space": {
        "memorySize": 262144,
        "committedMemory": 262144,
        "capacity": 32808,
        "used": 32808,
        "available": 0
      },
      "new_space": {
        "memorySize": 10485760,
        "committedMemory": 10485760,
        "capacity": 5237280,
        "used": 3167232,
        "available": 2070048
      },
      "old_space": {
        "memorySize": 2051678208,
        "committedMemory": 2051678208,
        "capacity": 2046301928,
        "used": 2045810376,
        "available": 491552
      },
      "code_space": {
        "memorySize": 3051520,
        "committedMemory": 3051520,
        "capacity": 2543520,
        "used": 2543520,
        "available": 0
      },
      "map_space": {
        "memorySize": 10227712,
        "committedMemory": 10227712,
        "capacity": 6705680,
        "used": 6705680,
        "available": 0
      },
      "large_object_space": {
        "memorySize": 84340736,
        "committedMemory": 84340736,
        "capacity": 84198192,
        "used": 84198192,
        "available": 0
      },
      "code_large_object_space": {
        "memorySize": 909312,
        "committedMemory": 909312,
        "capacity": 815616,
        "used": 815616,
        "available": 0
      },
      "new_large_object_space": {
        "memorySize": 0,
        "committedMemory": 0,
        "capacity": 5237280,
        "used": 0,
        "available": 5237280
      }
    }
  },
  "resourceUsage": {
    "userCpuSeconds": 140.312,
    "kernelCpuSeconds": 10.64,
    "cpuConsumptionPercent": 10.1926,
    "maxRss": 2156384256,
    "pageFaults": {
      "IORequired": 1198695,
      "IONotRequired": 0
    },
    "fsActivity": {
      "reads": 8843,
      "writes": 79
    }
  },
  "libuv": [
  ],
  "workers": [
  ],
  "environmentVariables": {
    "=D:": "D:\\Ngulicode\\Eunoian\\Undangan 1\\client\\mr asrofilhuda\\boilerplate",
    "ALLUSERSPROFILE": "C:\\ProgramData",
    "APPDATA": "C:\\Users\\Gigabyte\\AppData\\Roaming",
    "CHROME_CRASHPAD_PIPE_NAME": "\\\\.\\pipe\\crashpad_2444_KHXBBWPAYEBBGWFP",
    "COLORTERM": "truecolor",
    "CommonProgramFiles": "C:\\Program Files\\Common Files",
    "CommonProgramFiles(x86)": "C:\\Program Files (x86)\\Common Files",
    "CommonProgramW6432": "C:\\Program Files\\Common Files",
    "COMPUTERNAME": "ZAUVIK",
    "ComSpec": "C:\\WINDOWS\\system32\\cmd.exe",
    "dp0": "D:\\Ngulicode\\Eunoian\\Undangan 1\\client\\mr asrofilhuda\\boilerplate\\node_modules\\.bin\\",
    "DriverData": "C:\\Windows\\System32\\Drivers\\DriverData",
    "GIT_ASKPASS": "c:\\Users\\Gigabyte\\AppData\\Local\\Programs\\Microsoft VS Code\\resources\\app\\extensions\\git\\dist\\askpass.sh",
    "HOME": "C:\\Users\\Gigabyte",
    "HOMEDRIVE": "C:",
    "HOMEPATH": "\\Users\\Gigabyte",
    "INIT_CWD": "D:\\Ngulicode\\Eunoian\\Undangan 1\\client\\mr asrofilhuda\\boilerplate",
    "INTEL_DEV_REDIST": "C:\\Program Files (x86)\\Common Files\\Intel\\Shared Libraries\\",
    "LANG": "en_US.UTF-8",
    "LOCALAPPDATA": "C:\\Users\\Gigabyte\\AppData\\Local",
    "LOGONSERVER": "\\\\ZAUVIK",
    "MIC_LD_LIBRARY_PATH": "C:\\Program Files (x86)\\Common Files\\Intel\\Shared Libraries\\compiler\\lib\\mic",
    "NODE": "C:\\Program Files\\nodejs\\node.exe",
    "NODE_ENV": "development",
    "NODE_EXE": "C:\\Program Files\\nodejs\\\\node.exe",
    "NPM_CLI_JS": "C:\\Program Files\\nodejs\\\\node_modules\\npm\\bin\\npm-cli.js",
    "npm_config_access": "",
    "npm_config_allow_same_version": "",
    "npm_config_also": "",
    "npm_config_always_auth": "",
    "npm_config_argv": "{\"remain\":[],\"cooked\":[\"run\",\"dev\"],\"original\":[\"run\",\"dev\"]}",
    "npm_config_audit": "true",
    "npm_config_audit_level": "low",
    "npm_config_auth_type": "legacy",
    "npm_config_before": "",
    "npm_config_bin_links": "true",
    "npm_config_browser": "",
    "npm_config_ca": "",
    "npm_config_cache": "C:\\Users\\Gigabyte\\AppData\\Roaming\\npm-cache",
    "npm_config_cache_lock_retries": "10",
    "npm_config_cache_lock_stale": "60000",
    "npm_config_cache_lock_wait": "10000",
    "npm_config_cache_max": "Infinity",
    "npm_config_cache_min": "10",
    "npm_config_cafile": "",
    "npm_config_cert": "",
    "npm_config_cidr": "",
    "npm_config_color": "true",
    "npm_config_commit_hooks": "true",
    "npm_config_depth": "Infinity",
    "npm_config_description": "true",
    "npm_config_dev": "",
    "npm_config_dry_run": "",
    "npm_config_editor": "notepad.exe",
    "npm_config_engine_strict": "",
    "npm_config_fetch_retries": "2",
    "npm_config_fetch_retry_factor": "10",
    "npm_config_fetch_retry_maxtimeout": "60000",
    "npm_config_fetch_retry_mintimeout": "10000",
    "npm_config_force": "",
    "npm_config_format_package_lock": "true",
    "npm_config_fund": "true",
    "npm_config_git": "git",
    "npm_config_git_tag_version": "true",
    "npm_config_global": "",
    "npm_config_globalconfig": "C:\\Users\\Gigabyte\\AppData\\Roaming\\npm\\etc\\npmrc",
    "npm_config_globalignorefile": "C:\\Users\\Gigabyte\\AppData\\Roaming\\npm\\etc\\npmignore",
    "npm_config_global_style": "",
    "npm_config_group": "",
    "npm_config_ham_it_up": "",
    "npm_config_heading": "npm",
    "npm_config_https_proxy": "",
    "npm_config_if_present": "",
    "npm_config_ignore_prepublish": "",
    "npm_config_ignore_scripts": "",
    "npm_config_init_author_email": "",
    "npm_config_init_author_name": "",
    "npm_config_init_author_url": "",
    "npm_config_init_license": "ISC",
    "npm_config_init_module": "C:\\Users\\Gigabyte\\.npm-init.js",
    "npm_config_init_version": "1.0.0",
    "npm_config_json": "",
    "npm_config_key": "",
    "npm_config_legacy_bundling": "",
    "npm_config_link": "",
    "npm_config_local_address": "",
    "npm_config_loglevel": "notice",
    "npm_config_logs_max": "10",
    "npm_config_long": "",
    "npm_config_maxsockets": "50",
    "npm_config_message": "%s",
    "npm_config_metrics_registry": "https://registry.npmjs.org/",
    "npm_config_node_gyp": "C:\\Program Files\\nodejs\\node_modules\\npm\\node_modules\\node-gyp\\bin\\node-gyp.js",
    "npm_config_node_options": "",
    "npm_config_node_version": "12.16.2",
    "npm_config_noproxy": "",
    "npm_config_offline": "",
    "npm_config_onload_script": "",
    "npm_config_only": "",
    "npm_config_optional": "true",
    "npm_config_otp": "",
    "npm_config_package_lock": "true",
    "npm_config_package_lock_only": "",
    "npm_config_parseable": "",
    "npm_config_prefer_offline": "",
    "npm_config_prefer_online": "",
    "npm_config_prefix": "C:\\Users\\Gigabyte\\AppData\\Roaming\\npm",
    "npm_config_preid": "",
    "npm_config_production": "",
    "npm_config_progress": "true",
    "npm_config_proxy": "",
    "npm_config_read_only": "",
    "npm_config_rebuild_bundle": "true",
    "npm_config_registry": "https://registry.npmjs.org/",
    "npm_config_rollback": "true",
    "npm_config_save": "true",
    "npm_config_save_bundle": "",
    "npm_config_save_dev": "",
    "npm_config_save_exact": "",
    "npm_config_save_optional": "",
    "npm_config_save_prefix": "^",
    "npm_config_save_prod": "",
    "npm_config_scope": "",
    "npm_config_scripts_prepend_node_path": "warn-only",
    "npm_config_script_shell": "",
    "npm_config_searchexclude": "",
    "npm_config_searchlimit": "20",
    "npm_config_searchopts": "",
    "npm_config_searchstaleness": "900",
    "npm_config_send_metrics": "",
    "npm_config_shell": "C:\\WINDOWS\\system32\\cmd.exe",
    "npm_config_shrinkwrap": "true",
    "npm_config_sign_git_commit": "",
    "npm_config_sign_git_tag": "",
    "npm_config_sso_poll_frequency": "500",
    "npm_config_sso_type": "oauth",
    "npm_config_strict_ssl": "true",
    "npm_config_tag": "latest",
    "npm_config_tag_version_prefix": "v",
    "npm_config_timing": "",
    "npm_config_tmp": "C:\\Users\\Gigabyte\\AppData\\Local\\Temp",
    "npm_config_umask": "0000",
    "npm_config_unicode": "",
    "npm_config_unsafe_perm": "true",
    "npm_config_update_notifier": "true",
    "npm_config_usage": "",
    "npm_config_user": "",
    "npm_config_userconfig": "C:\\Users\\Gigabyte\\.npmrc",
    "npm_config_user_agent": "npm/6.14.4 node/v12.16.2 win32 x64",
    "npm_config_version": "",
    "npm_config_versions": "",
    "npm_config_viewer": "browser",
    "npm_execpath": "C:\\Program Files\\nodejs\\node_modules\\npm\\bin\\npm-cli.js",
    "npm_lifecycle_event": "dev",
    "npm_lifecycle_script": "nuxt-ts",
    "npm_node_execpath": "C:\\Program Files\\nodejs\\node.exe",
    "npm_package_dependencies_apexcharts": "^3.22.2",
    "npm_package_dependencies_core_js": "^3.6.5",
    "npm_package_dependencies_nuxt": "^2.14.6",
    "npm_package_dependencies_vue": "^2.6.12",
    "npm_package_dependencies_vuex": "^3.5.1",
    "npm_package_dependencies_vue_apexcharts": "^1.6.0",
    "npm_package_dependencies__nuxtjs_auth": "^4.9.1",
    "npm_package_dependencies__nuxtjs_axios": "^5.13.1",
    "npm_package_dependencies__nuxt_typescript_runtime": "^2.0.0",
    "npm_package_dependencies__vuex_orm_core": "^0.36.3",
    "npm_package_dependencies__vuex_orm_plugin_axios": "^0.9.4",
    "npm_package_description": "```bash\r # install dependencies\r $ npm install",
    "npm_package_devDependencies_babel_core": "7.0.0-bridge.0",
    "npm_package_devDependencies_babel_eslint": "^10.1.0",
    "npm_package_devDependencies_babel_jest": "^26.5.0",
    "npm_package_devDependencies_eslint": "^7.10.0",
    "npm_package_devDependencies_eslint_plugin_nuxt": "^1.0.0",
    "npm_package_devDependencies_fibers": "^5.0.0",
    "npm_package_devDependencies_jest": "^26.5.0",
    "npm_package_devDependencies_material_design_icons_iconfont": "^6.1.0",
    "npm_package_devDependencies_pug": "^3.0.0",
    "npm_package_devDependencies_pug_plain_loader": "^1.0.0",
    "npm_package_devDependencies_sass": "^1.29.0",
    "npm_package_devDependencies_sass_loader": "^7.1.0",
    "npm_package_devDependencies_ts_jest": "^26.4.1",
    "npm_package_devDependencies_vue_jest": "^3.0.4",
    "npm_package_devDependencies__nuxtjs_eslint_config": "^3.1.0",
    "npm_package_devDependencies__nuxtjs_eslint_config_typescript": "^3.0.0",
    "npm_package_devDependencies__nuxtjs_eslint_module": "^2.0.0",
    "npm_package_devDependencies__nuxtjs_vuetify": "^1.11.2",
    "npm_package_devDependencies__nuxt_types": "^2.14.6",
    "npm_package_devDependencies__nuxt_typescript_build": "^2.0.3",
    "npm_package_devDependencies__vue_test_utils": "^1.1.0",
    "npm_package_gitHead": "66cb644716d8462b5f1741c65877a93086276ceb",
    "npm_package_name": "akademix_akademik",
    "npm_package_private": "true",
    "npm_package_readmeFilename": "README.md",
    "npm_package_scripts_build": "nuxt-ts build",
    "npm_package_scripts_dev": "nuxt-ts",
    "npm_package_scripts_generate": "nuxt-ts generate",
    "npm_package_scripts_lint": "npm run lint:js",
    "npm_package_scripts_lint_js": "eslint --ext .js,.vue --ignore-path .gitignore .",
    "npm_package_scripts_start": "nuxt-ts start",
    "npm_package_scripts_test": "jest",
    "npm_package_version": "1.0.0",
    "NPM_PREFIX_NPM_CLI_JS": "C:\\Users\\Gigabyte\\AppData\\Roaming\\npm\\node_modules\\npm\\bin\\npm-cli.js",
    "NUMBER_OF_PROCESSORS": "4",
    "OneDrive": "C:\\Users\\Gigabyte\\OneDrive",
    "OneDriveConsumer": "C:\\Users\\Gigabyte\\OneDrive",
    "ORIGINAL_XDG_CURRENT_DESKTOP": "undefined",
    "OS": "Windows_NT",
    "Path": "C:\\Program Files\\nodejs\\node_modules\\npm\\node_modules\\npm-lifecycle\\node-gyp-bin;D:\\Ngulicode\\Eunoian\\Undangan 1\\client\\mr asrofilhuda\\boilerplate\\node_modules\\.bin;C:\\Program Files (x86)\\Common Files\\Intel\\Shared Libraries\\redist\\intel64\\compiler;D:\\app\\Gigabyte\\product\\12.1.0\\dbhome_1\\bin;C:\\Windows\\system32;C:\\Windows;C:\\Windows\\System32\\Wbem;C:\\Windows\\System32\\WindowsPowerShell\\v1.0\\;C:\\Program Files\\Git\\cmd;C:\\xampp\\php;C:\\WINDOWS\\system32;C:\\WINDOWS;C:\\WINDOWS\\System32\\Wbem;C:\\WINDOWS\\System32\\WindowsPowerShell\\v1.0\\;C:\\enviroment\\sqlite;C:\\WINDOWS\\System32\\OpenSSH\\;C:\\Program Files\\heroku\\bin;C:\\Program Files (x86)\\Windows Kits\\8.1\\Windows Performance Toolkit\\;C:\\Program Files\\Docker\\Docker\\resources\\bin;C:\\ProgramData\\DockerDesktop\\version-bin;C:\\Program Files\\nodejs\\;C:\\ProgramData\\ComposerSetup\\bin;C:\\Users\\Gigabyte\\AppData\\Local\\Microsoft\\WindowsApps;C:\\Users\\Gigabyte\\AppData\\Local\\Microsoft\\WindowsApps;C:\\Program Files\\heroku\\bin;C:\\Users\\Gigabyte\\AppData\\Local\\Programs\\Microsoft VS Code\\bin;C:\\Users\\Gigabyte\\AppData\\Roaming\\npm;C:\\Users\\Gigabyte\\AppData\\Local\\Programs\\Python\\Python38-32;D:\\learn\\Flutter\\lib\\flutter\\bin;E:\\ryan\\platform-tools;C:\\Users\\Gigabyte\\AppData\\Roaming\\Composer\\vendor\\bin",
    "PATHEXT": ".COM;.EXE;.BAT;.CMD;.VBS;.VBE;.JSE;.WSF;.WSH;.MSC;.CPL",
    "PROCESSOR_ARCHITECTURE": "AMD64",
    "PROCESSOR_IDENTIFIER": "Intel64 Family 6 Model 158 Stepping 9, GenuineIntel",
    "PROCESSOR_LEVEL": "6",
    "PROCESSOR_REVISION": "9e09",
    "ProgramData": "C:\\ProgramData",
    "ProgramFiles": "C:\\Program Files",
    "ProgramFiles(x86)": "C:\\Program Files (x86)",
    "ProgramW6432": "C:\\Program Files",
    "PROMPT": "$P$G",
    "PSModulePath": "C:\\Users\\Gigabyte\\Documents\\WindowsPowerShell\\Modules;C:\\Program Files\\WindowsPowerShell\\Modules;C:\\WINDOWS\\system32\\WindowsPowerShell\\v1.0\\Modules",
    "PUBLIC": "C:\\Users\\Public",
    "Python enviroment": "C:\\Users\\Gigabyte\\AppData\\Local\\Programs\\Python\\Python38-32\\",
    "SESSIONNAME": "Console",
    "SystemDrive": "C:",
    "SystemRoot": "C:\\WINDOWS",
    "TEMP": "C:\\Users\\Gigabyte\\AppData\\Local\\Temp",
    "TERM_PROGRAM": "vscode",
    "TERM_PROGRAM_VERSION": "1.53.2",
    "TMP": "C:\\Users\\Gigabyte\\AppData\\Local\\Temp",
    "USERDOMAIN": "ZAUVIK",
    "USERDOMAIN_ROAMINGPROFILE": "ZAUVIK",
    "USERNAME": "Gigabyte",
    "USERPROFILE": "C:\\Users\\Gigabyte",
    "VSCODE_GIT_ASKPASS_MAIN": "c:\\Users\\Gigabyte\\AppData\\Local\\Programs\\Microsoft VS Code\\resources\\app\\extensions\\git\\dist\\askpass-main.js",
    "VSCODE_GIT_ASKPASS_NODE": "C:\\Users\\Gigabyte\\AppData\\Local\\Programs\\Microsoft VS Code\\Code.exe",
    "VSCODE_GIT_IPC_HANDLE": "\\\\.\\pipe\\vscode-git-82014fc398-sock",
    "VUE_ENV": "server",
    "windir": "C:\\WINDOWS",
    "_applied": "true",
    "_AXIOS_BASE_URL_": "http://localhost:3000/",
    "_prog": "node"
  },
  "sharedObjects": [
    "C:\\Program Files\\nodejs\\node.exe",
    "C:\\WINDOWS\\SYSTEM32\\ntdll.dll",
    "C:\\WINDOWS\\System32\\KERNEL32.DLL",
    "C:\\WINDOWS\\System32\\KERNELBASE.dll",
    "C:\\WINDOWS\\System32\\WS2_32.dll",
    "C:\\WINDOWS\\System32\\RPCRT4.dll",
    "C:\\WINDOWS\\SYSTEM32\\dbghelp.dll",
    "C:\\WINDOWS\\System32\\PSAPI.DLL",
    "C:\\WINDOWS\\System32\\ADVAPI32.dll",
    "C:\\WINDOWS\\System32\\ucrtbase.dll",
    "C:\\WINDOWS\\System32\\msvcrt.dll",
    "C:\\WINDOWS\\System32\\sechost.dll",
    "C:\\WINDOWS\\System32\\USER32.dll",
    "C:\\WINDOWS\\System32\\win32u.dll",
    "C:\\WINDOWS\\System32\\GDI32.dll",
    "C:\\WINDOWS\\SYSTEM32\\IPHLPAPI.DLL",
    "C:\\WINDOWS\\System32\\gdi32full.dll",
    "C:\\WINDOWS\\System32\\msvcp_win.dll",
    "C:\\WINDOWS\\SYSTEM32\\USERENV.dll",
    "C:\\WINDOWS\\System32\\CRYPT32.dll",
    "C:\\WINDOWS\\System32\\MSASN1.dll",
    "C:\\WINDOWS\\System32\\profapi.dll",
    "C:\\WINDOWS\\SYSTEM32\\bcrypt.dll",
    "C:\\WINDOWS\\SYSTEM32\\WINMM.dll",
    "C:\\WINDOWS\\SYSTEM32\\WINMMBASE.dll",
    "C:\\WINDOWS\\System32\\cfgmgr32.dll",
    "C:\\WINDOWS\\System32\\IMM32.DLL",
    "C:\\WINDOWS\\System32\\powrprof.dll",
    "C:\\WINDOWS\\SYSTEM32\\CRYPTBASE.DLL",
    "C:\\WINDOWS\\System32\\bcryptPrimitives.dll",
    "C:\\WINDOWS\\system32\\uxtheme.dll",
    "C:\\WINDOWS\\System32\\combase.dll",
    "C:\\WINDOWS\\system32\\mswsock.dll",
    "C:\\WINDOWS\\System32\\kernel.appcore.dll",
    "C:\\WINDOWS\\System32\\NSI.dll",
    "C:\\WINDOWS\\SYSTEM32\\dhcpcsvc6.DLL",
    "C:\\WINDOWS\\SYSTEM32\\dhcpcsvc.DLL",
    "C:\\WINDOWS\\system32\\napinsp.dll",
    "C:\\WINDOWS\\system32\\pnrpnsp.dll",
    "C:\\WINDOWS\\system32\\NLAapi.dll",
    "C:\\WINDOWS\\SYSTEM32\\DNSAPI.dll",
    "C:\\WINDOWS\\System32\\winrnr.dll",
    "C:\\WINDOWS\\System32\\wshbth.dll",
    "C:\\WINDOWS\\system32\\wlidnsp.dll",
    "C:\\Program Files\\Bonjour\\mdnsNSP.dll",
    "C:\\Windows\\System32\\rasadhlp.dll",
    "C:\\WINDOWS\\System32\\fwpuclnt.dll"
  ]
}